<?xml version="1.0" encoding="UTF-8" standalone="no"?>
<!-- Created with Inkscape (http://www.inkscape.org/) -->

<svg
   xmlns:dc="http://purl.org/dc/elements/1.1/"
   xmlns:cc="http://creativecommons.org/ns#"
   xmlns:rdf="http://www.w3.org/1999/02/22-rdf-syntax-ns#"
   xmlns:svg="http://www.w3.org/2000/svg"
   xmlns="http://www.w3.org/2000/svg"
   xmlns:sodipodi="http://sodipodi.sourceforge.net/DTD/sodipodi-0.dtd"
   xmlns:inkscape="http://www.inkscape.org/namespaces/inkscape"
   width="210mm"
   height="297mm"
   viewBox="0 0 210 297"
   version="1.1"
   id="svg4775"
   inkscape:version="0.92.1 r15371"
   sodipodi:docname="drawing2.svg"
   inkscape:export-filename="/home/bdas/Work/Presentations/linuxcon2018/images/libiio.png"
   inkscape:export-xdpi="96"
   inkscape:export-ydpi="96">
  <defs
     id="defs4769" />
  <sodipodi:namedview
     id="base"
     pagecolor="#ffffff"
     bordercolor="#666666"
     borderopacity="1.0"
     inkscape:pageopacity="1"
     inkscape:pageshadow="2"
     inkscape:zoom="0.35"
     inkscape:cx="-760"
     inkscape:cy="-11.428574"
     inkscape:document-units="mm"
     inkscape:current-layer="layer1"
     showgrid="false"
     inkscape:window-width="1918"
     inkscape:window-height="1042"
     inkscape:window-x="0"
     inkscape:window-y="18"
     inkscape:window-maximized="0" />
  <metadata
     id="metadata4772">
    <rdf:RDF>
      <cc:Work
         rdf:about="">
        <dc:format>image/svg+xml</dc:format>
        <dc:type
           rdf:resource="http://purl.org/dc/dcmitype/StillImage" />
        <dc:title></dc:title>
      </cc:Work>
    </rdf:RDF>
  </metadata>
  <g
     inkscape:label="Layer 1"
     inkscape:groupmode="layer"
     id="layer1">
    <rect
       style="fill:#808000;stroke-width:4.78772163;stroke-miterlimit:4;stroke-dasharray:none"
       id="rect4804-3"
       width="67.19873"
       height="63.936855"
       x="69.944603"
       y="20.39613"
       inkscape:export-filename="/home/bdas/Work/Presentations/linuxcon2018/images/aero_diagram.png"
       inkscape:export-xdpi="96"
       inkscape:export-ydpi="96" />
    <text
       xml:space="preserve"
       style="font-style:normal;font-weight:normal;font-size:25.3350296px;line-height:1.25;font-family:sans-serif;letter-spacing:0px;word-spacing:0px;fill:#000000;fill-opacity:1;stroke:none;stroke-width:0.63337582"
       x="74.413063"
       y="54.065613"
       id="text3690-1-6"
       inkscape:export-filename="/home/bdas/Work/Presentations/linuxcon2018/images/aero_diagram.png"
       inkscape:export-xdpi="96"
       inkscape:export-ydpi="96"
       transform="scale(1.0104395,0.98966831)"><tspan
         sodipodi:role="line"
         id="tspan3688-8-7"
         x="74.413063"
         y="54.065613"
         style="font-size:10.13401318px;stroke-width:0.63337582">iio_context</tspan></text>
    <path
       style="fill:none;stroke:#000000;stroke-width:2.39386082;stroke-linecap:butt;stroke-linejoin:miter;stroke-miterlimit:4;stroke-dasharray:none;stroke-opacity:1"
       d="m 106.06243,83.843777 c 0,19.431773 0,19.431773 0,19.431773"
       id="path4571-5"
       inkscape:connector-curvature="0"
       inkscape:export-filename="/home/bdas/Work/Presentations/linuxcon2018/images/aero_diagram.png"
       inkscape:export-xdpi="96"
       inkscape:export-ydpi="96" />
    <rect
       style="fill:#808000;stroke-width:4.78772163;stroke-miterlimit:4;stroke-dasharray:none"
       id="rect4804-3-3"
       width="67.19873"
       height="63.936855"
       x="72.463043"
       y="102.78637"
       inkscape:export-filename="/home/bdas/Work/Presentations/linuxcon2018/images/aero_diagram.png"
       inkscape:export-xdpi="96"
       inkscape:export-ydpi="96" />
    <text
       xml:space="preserve"
       style="font-style:normal;font-weight:normal;font-size:25.3350296px;line-height:1.25;font-family:sans-serif;letter-spacing:0px;word-spacing:0px;fill:#000000;fill-opacity:1;stroke:none;stroke-width:0.63337582"
       x="76.905449"
       y="137.31595"
       id="text3690-1-6-5"
       inkscape:export-filename="/home/bdas/Work/Presentations/linuxcon2018/images/aero_diagram.png"
       inkscape:export-xdpi="96"
       inkscape:export-ydpi="96"
       transform="scale(1.0104395,0.98966831)"><tspan
         sodipodi:role="line"
         id="tspan3688-8-7-6"
         x="76.905449"
         y="137.31595"
         style="font-size:10.13401318px;stroke-width:0.63337582">iio_device</tspan></text>
    <path
       style="fill:none;stroke:#000000;stroke-width:2.39386082;stroke-linecap:butt;stroke-linejoin:miter;stroke-miterlimit:4;stroke-dasharray:none;stroke-opacity:1"
       d="m 107.95125,166.23398 c 0,19.43178 0,19.43178 0,19.43178"
       id="path4571-5-2"
       inkscape:connector-curvature="0"
       inkscape:export-filename="/home/bdas/Work/Presentations/linuxcon2018/images/aero_diagram.png"
       inkscape:export-xdpi="96"
       inkscape:export-ydpi="96" />
    <path
       style="fill:none;stroke:#000000;stroke-width:2.39386082;stroke-linecap:butt;stroke-linejoin:miter;stroke-miterlimit:4;stroke-dasharray:none;stroke-opacity:1"
       d="m 76.903033,185.3124 c 62.709107,0 63.355617,0 63.355617,0"
       id="path3698-3-9"
       inkscape:connector-curvature="0"
       inkscape:export-filename="/home/bdas/Work/Presentations/linuxcon2018/images/aero_diagram.png"
       inkscape:export-xdpi="96"
       inkscape:export-ydpi="96" />
    <path
       style="fill:none;stroke:#000000;stroke-width:2.39386082;stroke-linecap:butt;stroke-linejoin:miter;stroke-miterlimit:4;stroke-dasharray:none;stroke-opacity:1"
       d="m 76.903033,185.3124 c 0,19.43178 0,19.43178 0,19.43178"
       id="path4571-5-1"
       inkscape:connector-curvature="0"
       inkscape:export-filename="/home/bdas/Work/Presentations/linuxcon2018/images/aero_diagram.png"
       inkscape:export-xdpi="96"
       inkscape:export-ydpi="96" />
    <path
       style="fill:none;stroke:#000000;stroke-width:2.39386082;stroke-linecap:butt;stroke-linejoin:miter;stroke-miterlimit:4;stroke-dasharray:none;stroke-opacity:1"
       d="m 140.25865,185.3124 c 0,19.43178 0,19.43178 0,19.43178"
       id="path4571-5-1-2"
       inkscape:connector-curvature="0"
       inkscape:export-filename="/home/bdas/Work/Presentations/linuxcon2018/images/aero_diagram.png"
       inkscape:export-xdpi="96"
       inkscape:export-ydpi="96" />
    <rect
       style="fill:#808000;stroke-width:4.78772163;stroke-miterlimit:4;stroke-dasharray:none"
       id="rect4804-3-7"
       width="67.19873"
       height="63.936855"
       x="29.649933"
       y="205.77415"
       inkscape:export-filename="/home/bdas/Work/Presentations/linuxcon2018/images/aero_diagram.png"
       inkscape:export-xdpi="96"
       inkscape:export-ydpi="96" />
    <rect
       style="fill:#808000;stroke-width:4.78772163;stroke-miterlimit:4;stroke-dasharray:none"
       id="rect4804-3-7-0"
       width="67.19873"
       height="63.936855"
       x="112.75774"
       y="204.5258"
       inkscape:export-filename="/home/bdas/Work/Presentations/linuxcon2018/images/aero_diagram.png"
       inkscape:export-xdpi="96"
       inkscape:export-ydpi="96" />
    <text
       xml:space="preserve"
       style="font-style:normal;font-weight:normal;font-size:25.3350296px;line-height:1.25;font-family:sans-serif;letter-spacing:0px;word-spacing:0px;fill:#000000;fill-opacity:1;stroke:none;stroke-width:0.63337582"
       x="37.300369"
       y="241.61781"
       id="text3690-1-6-5-9"
       inkscape:export-filename="/home/bdas/Work/Presentations/linuxcon2018/images/aero_diagram.png"
       inkscape:export-xdpi="96"
       inkscape:export-ydpi="96"
       transform="scale(1.0104395,0.98966831)"><tspan
         sodipodi:role="line"
         id="tspan3688-8-7-6-3"
         x="37.300369"
         y="241.61781"
         style="font-size:10.13401318px;stroke-width:0.63337582">iio_channel</tspan></text>
    <text
       xml:space="preserve"
       style="font-style:normal;font-weight:normal;font-size:25.3350296px;line-height:1.25;font-family:sans-serif;letter-spacing:0px;word-spacing:0px;fill:#000000;fill-opacity:1;stroke:none;stroke-width:0.63337582"
       x="121.41885"
       y="239.7258"
       id="text3690-1-6-5-9-6"
       inkscape:export-filename="/home/bdas/Work/Presentations/linuxcon2018/images/aero_diagram.png"
       inkscape:export-xdpi="96"
       inkscape:export-ydpi="96"
       transform="scale(1.0104395,0.98966831)"><tspan
         sodipodi:role="line"
         id="tspan3688-8-7-6-3-0"
         x="121.41885"
         y="239.7258"
         style="font-size:10.13401318px;stroke-width:0.63337582">iio_buffer</tspan></text>
  </g>
</svg>
