<?xml version="1.0" encoding="UTF-8" standalone="no"?>
<!-- Created with Inkscape (http://www.inkscape.org/) -->

<svg
   xmlns:osb="http://www.openswatchbook.org/uri/2009/osb"
   xmlns:dc="http://purl.org/dc/elements/1.1/"
   xmlns:cc="http://creativecommons.org/ns#"
   xmlns:rdf="http://www.w3.org/1999/02/22-rdf-syntax-ns#"
   xmlns:svg="http://www.w3.org/2000/svg"
   xmlns="http://www.w3.org/2000/svg"
   xmlns:sodipodi="http://sodipodi.sourceforge.net/DTD/sodipodi-0.dtd"
   xmlns:inkscape="http://www.inkscape.org/namespaces/inkscape"
   width="297mm"
   height="420mm"
   viewBox="0 0 297 420"
   version="1.1"
   id="svg4775"
   inkscape:version="0.92.4 (5da689c313, 2019-01-14)"
   sodipodi:docname="pause.svg"
   inkscape:export-filename="/home/bdas/Work/Presentations/linuxcon2018/images/libiio.png"
   inkscape:export-xdpi="96"
   inkscape:export-ydpi="96">
  <defs
     id="defs4769">
    <marker
       inkscape:stockid="DiamondL"
       orient="auto"
       refY="0"
       refX="0"
       id="DiamondL"
       style="overflow:visible"
       inkscape:isstock="true">
      <path
         id="path1483"
         d="M 0,-7.0710768 -7.0710894,0 0,7.0710589 7.0710462,0 Z"
         style="fill:#e3dbdb;fill-opacity:1;fill-rule:evenodd;stroke:none;stroke-width:1.00000003pt;stroke-opacity:1"
         transform="scale(0.8)"
         inkscape:connector-curvature="0" />
    </marker>
    <linearGradient
       id="linearGradient5614"
       osb:paint="gradient">
      <stop
         style="stop-color:#6acd4d;stop-opacity:1;"
         offset="0"
         id="stop5610" />
      <stop
         style="stop-color:#6acd4d;stop-opacity:0;"
         offset="1"
         id="stop5612" />
    </linearGradient>
    <marker
       inkscape:stockid="Arrow1Lstart"
       orient="auto"
       refY="0"
       refX="0"
       id="Arrow1Lstart"
       style="overflow:visible"
       inkscape:isstock="true">
      <path
         id="path5278"
         d="M 0,0 5,-5 -12.5,0 5,5 Z"
         style="fill:#000000;fill-opacity:1;fill-rule:evenodd;stroke:#000000;stroke-width:1.00000003pt;stroke-opacity:1"
         transform="matrix(0.8,0,0,0.8,10,0)"
         inkscape:connector-curvature="0" />
    </marker>
    <marker
       inkscape:stockid="Arrow1Lstart"
       orient="auto"
       refY="0"
       refX="0"
       id="Arrow1Lstart-9"
       style="overflow:visible"
       inkscape:isstock="true">
      <path
         inkscape:connector-curvature="0"
         id="path5278-2"
         d="M 0,0 5,-5 -12.5,0 5,5 Z"
         style="fill:#000000;fill-opacity:1;fill-rule:evenodd;stroke:#000000;stroke-width:1.00000003pt;stroke-opacity:1"
         transform="matrix(0.8,0,0,0.8,10,0)" />
    </marker>
    <marker
       inkscape:stockid="Arrow1Lstart"
       orient="auto"
       refY="0"
       refX="0"
       id="Arrow1Lstart-9-8"
       style="overflow:visible"
       inkscape:isstock="true">
      <path
         inkscape:connector-curvature="0"
         id="path5278-2-9"
         d="M 0,0 5,-5 -12.5,0 5,5 Z"
         style="fill:#000000;fill-opacity:1;fill-rule:evenodd;stroke:#000000;stroke-width:1.00000003pt;stroke-opacity:1"
         transform="matrix(0.8,0,0,0.8,10,0)" />
    </marker>
    <marker
       inkscape:stockid="Arrow1Lstart"
       orient="auto"
       refY="0"
       refX="0"
       id="Arrow1Lstart-9-8-0"
       style="overflow:visible"
       inkscape:isstock="true">
      <path
         inkscape:connector-curvature="0"
         id="path5278-2-9-6"
         d="M 0,0 5,-5 -12.5,0 5,5 Z"
         style="fill:#000000;fill-opacity:1;fill-rule:evenodd;stroke:#000000;stroke-width:1.00000003pt;stroke-opacity:1"
         transform="matrix(0.8,0,0,0.8,10,0)" />
    </marker>
    <marker
       inkscape:stockid="Arrow1Lstart"
       orient="auto"
       refY="0"
       refX="0"
       id="Arrow1Lstart-9-8-0-6"
       style="overflow:visible"
       inkscape:isstock="true">
      <path
         inkscape:connector-curvature="0"
         id="path5278-2-9-6-1"
         d="M 0,0 5,-5 -12.5,0 5,5 Z"
         style="fill:#000000;fill-opacity:1;fill-rule:evenodd;stroke:#000000;stroke-width:1.00000003pt;stroke-opacity:1"
         transform="matrix(0.8,0,0,0.8,10,0)" />
    </marker>
    <marker
       inkscape:stockid="Arrow1Lstart"
       orient="auto"
       refY="0"
       refX="0"
       id="Arrow1Lstart-9-8-0-7"
       style="overflow:visible"
       inkscape:isstock="true">
      <path
         inkscape:connector-curvature="0"
         id="path5278-2-9-6-6"
         d="M 0,0 5,-5 -12.5,0 5,5 Z"
         style="fill:#000000;fill-opacity:1;fill-rule:evenodd;stroke:#000000;stroke-width:1.00000003pt;stroke-opacity:1"
         transform="matrix(0.8,0,0,0.8,10,0)" />
    </marker>
    <marker
       inkscape:stockid="Arrow1Lstart"
       orient="auto"
       refY="0"
       refX="0"
       id="Arrow1Lstart-9-8-0-6-5"
       style="overflow:visible"
       inkscape:isstock="true">
      <path
         inkscape:connector-curvature="0"
         id="path5278-2-9-6-1-2"
         d="M 0,0 5,-5 -12.5,0 5,5 Z"
         style="fill:#000000;fill-opacity:1;fill-rule:evenodd;stroke:#000000;stroke-width:1.00000003pt;stroke-opacity:1"
         transform="matrix(0.8,0,0,0.8,10,0)" />
    </marker>
    <marker
       inkscape:stockid="Arrow1Lstart"
       orient="auto"
       refY="0"
       refX="0"
       id="Arrow1Lstart-9-8-0-78"
       style="overflow:visible"
       inkscape:isstock="true">
      <path
         inkscape:connector-curvature="0"
         id="path5278-2-9-6-68"
         d="M 0,0 5,-5 -12.5,0 5,5 Z"
         style="fill:#000000;fill-opacity:1;fill-rule:evenodd;stroke:#000000;stroke-width:1.00000003pt;stroke-opacity:1"
         transform="matrix(0.8,0,0,0.8,10,0)" />
    </marker>
    <marker
       inkscape:stockid="Arrow1Lstart"
       orient="auto"
       refY="0"
       refX="0"
       id="Arrow1Lstart-9-8-0-6-4"
       style="overflow:visible"
       inkscape:isstock="true">
      <path
         inkscape:connector-curvature="0"
         id="path5278-2-9-6-1-9"
         d="M 0,0 5,-5 -12.5,0 5,5 Z"
         style="fill:#000000;fill-opacity:1;fill-rule:evenodd;stroke:#000000;stroke-width:1.00000003pt;stroke-opacity:1"
         transform="matrix(0.8,0,0,0.8,10,0)" />
    </marker>
    <marker
       inkscape:stockid="Arrow1Lstart"
       orient="auto"
       refY="0"
       refX="0"
       id="Arrow1Lstart-9-8-0-6-4-2"
       style="overflow:visible"
       inkscape:isstock="true">
      <path
         inkscape:connector-curvature="0"
         id="path5278-2-9-6-1-9-6"
         d="M 0,0 5,-5 -12.5,0 5,5 Z"
         style="fill:#000000;fill-opacity:1;fill-rule:evenodd;stroke:#000000;stroke-width:1.00000003pt;stroke-opacity:1"
         transform="matrix(0.8,0,0,0.8,10,0)" />
    </marker>
    <marker
       inkscape:stockid="Arrow1Lstart"
       orient="auto"
       refY="0"
       refX="0"
       id="Arrow1Lstart-9-8-0-6-4-4"
       style="overflow:visible"
       inkscape:isstock="true">
      <path
         inkscape:connector-curvature="0"
         id="path5278-2-9-6-1-9-9"
         d="M 0,0 5,-5 -12.5,0 5,5 Z"
         style="fill:#000000;fill-opacity:1;fill-rule:evenodd;stroke:#000000;stroke-width:1.00000003pt;stroke-opacity:1"
         transform="matrix(0.8,0,0,0.8,10,0)" />
    </marker>
    <marker
       inkscape:stockid="Arrow1Lstart"
       orient="auto"
       refY="0"
       refX="0"
       id="Arrow1Lstart-9-8-0-6-4-2-8"
       style="overflow:visible"
       inkscape:isstock="true">
      <path
         inkscape:connector-curvature="0"
         id="path5278-2-9-6-1-9-6-7"
         d="M 0,0 5,-5 -12.5,0 5,5 Z"
         style="fill:#000000;fill-opacity:1;fill-rule:evenodd;stroke:#000000;stroke-width:1.00000003pt;stroke-opacity:1"
         transform="matrix(0.8,0,0,0.8,10,0)" />
    </marker>
    <filter
       inkscape:collect="always"
       style="color-interpolation-filters:sRGB"
       id="filter1836"
       x="-0.0142"
       width="1.0283999"
       y="-0.01730625"
       height="1.0346125">
      <feGaussianBlur
         inkscape:collect="always"
         stdDeviation="0.30526303"
         id="feGaussianBlur1838" />
    </filter>
    <filter
       inkscape:collect="always"
       style="color-interpolation-filters:sRGB"
       id="filter1836-7"
       x="-0.0142"
       width="1.0283999"
       y="-0.01730625"
       height="1.0346125">
      <feGaussianBlur
         inkscape:collect="always"
         stdDeviation="0.30526303"
         id="feGaussianBlur1838-5" />
    </filter>
  </defs>
  <sodipodi:namedview
     id="base"
     pagecolor="#ffffff"
     bordercolor="#666666"
     borderopacity="1.0"
     inkscape:pageopacity="1"
     inkscape:pageshadow="2"
     inkscape:zoom="0.70710678"
     inkscape:cx="427.54617"
     inkscape:cy="862.48786"
     inkscape:document-units="mm"
     inkscape:current-layer="layer1"
     showgrid="false"
     inkscape:window-width="1918"
     inkscape:window-height="1042"
     inkscape:window-x="0"
     inkscape:window-y="18"
     inkscape:window-maximized="0" />
  <metadata
     id="metadata4772">
    <rdf:RDF>
      <cc:Work
         rdf:about="">
        <dc:format>image/svg+xml</dc:format>
        <dc:type
           rdf:resource="http://purl.org/dc/dcmitype/StillImage" />
        <dc:title></dc:title>
      </cc:Work>
    </rdf:RDF>
  </metadata>
  <g
     inkscape:label="Layer 1"
     inkscape:groupmode="layer"
     id="layer1"
     transform="translate(0,123)">
    <rect
       style="opacity:0.28500001;fill:#8080cd;fill-opacity:1;stroke:#2b1620;stroke-width:0.8679477;stroke-miterlimit:4;stroke-dasharray:none;stroke-opacity:1"
       id="rect10339"
       width="288.63275"
       height="287.89066"
       x="4.3703175"
       y="-53.767517" />
    <text
       xml:space="preserve"
       style="font-style:normal;font-weight:normal;font-size:54.56134415px;line-height:1.25;font-family:sans-serif;letter-spacing:0px;word-spacing:0px;fill:#000000;fill-opacity:1;stroke:none;stroke-width:1.36547351;stroke-miterlimit:4;stroke-dasharray:none"
       x="108.56958"
       y="61.367065"
       id="text3690-1-6-5-92-3-9-2-5-7"
       inkscape:export-filename="/home/bdas/Work/Presentations/linuxcon2018/images/aero_diagram.png"
       inkscape:export-xdpi="96"
       inkscape:export-ydpi="96"
       transform="scale(0.71012646,1.4081999)"><tspan
         sodipodi:role="line"
         id="tspan3688-8-7-6-0-6-3-0-4-4"
         x="108.56958"
         y="61.367065"
         style="font-size:21.82453918px;stroke:#2b1620;stroke-width:1.36547351;stroke-miterlimit:4;stroke-dasharray:none;stroke-opacity:1">PAUSE</tspan></text>
    <path
       style="fill:none;stroke:#000000;stroke-width:0.83451682;stroke-linecap:butt;stroke-linejoin:miter;stroke-miterlimit:4;stroke-dasharray:none;stroke-opacity:1;marker-start:url(#Arrow1Lstart-9-8-0-6-5)"
       d="m 138.9644,90.099102 -23.37251,0.03635 -22.327306,0.03477 -18.456358,0.02871"
       id="path4571-5-1-2-2-7-3-5-5"
       inkscape:connector-curvature="0"
       inkscape:export-filename="/home/bdas/Work/Presentations/linuxcon2018/images/aero_diagram.png"
       inkscape:export-xdpi="96"
       inkscape:export-ydpi="96"
       sodipodi:nodetypes="cccc"
       inkscape:transform-center-x="116.84779"
       inkscape:transform-center-y="47.450108" />
    <ellipse
       style="opacity:1;fill:#ffffff;stroke:#2b1620;stroke-width:2;stroke-miterlimit:4;stroke-dasharray:none;stroke-opacity:1;filter:url(#filter1836)"
       id="path1758"
       cx="38.496876"
       cy="104.11875"
       rx="25.796875"
       ry="21.166668"
       transform="matrix(1.1220591,0,0,1.134261,1.1971508,-26.370991)" />
    <g
       id="g307"
       transform="matrix(1.9103732,0,0,2.4500108,63.180918,57.668116)">
      <g
         id="g249"
         transform="matrix(0.68124434,0,0,0.58648669,-21.060206,11.523973)">
        <g
           id="g247">
          <path
             id="path243"
             d="M 17.109,5.454 C 16.867,5.165 16.436,5.127 16.147,5.368 L 14.253,6.959 13.382,4.801 C 13.351,4.72 13.304,4.652 13.25,4.592 13.072,4.196 12.763,3.856 12.337,3.659 12.152,3.575 11.961,3.53 11.77,3.508 11.728,3.486 11.69,3.457 11.642,3.442 L 8.309,2.513 C 8.122,2.462 7.934,2.495 7.78,2.585 7.597,2.647 7.44,2.78 7.365,2.973 L 6.11,6.2 C 5.974,6.551 6.148,6.947 6.5,7.085 6.85,7.221 7.247,7.046 7.384,6.694 L 8.444,3.969 9.962,4.391 C 9.925,4.451 9.885,4.507 9.855,4.571 L 7.909,8.789 C 7.881,8.851 7.866,8.914 7.846,8.978 l -2.365,3.965 -3.958,1.324 c -0.448,0.335 -0.543,0.966 -0.212,1.414 0.333,0.449 0.966,0.544 1.413,0.213 l 4.05,-1.395 C 6.898,14.409 6.988,14.291 7.056,14.164 7.107,14.11 7.165,14.067 7.204,14 l 1.41,-2.364 2.503,2.133 -2.678,3.018 c -0.369,0.416 -0.332,1.057 0.086,1.425 0.417,0.371 1.056,0.332 1.427,-0.086 l 3.342,-3.765 c 0.104,-0.116 0.166,-0.25 0.208,-0.39 0.025,-0.076 0.025,-0.155 0.031,-0.234 0,-0.04 0.015,-0.076 0.012,-0.113 -0.009,-0.276 -0.121,-0.544 -0.347,-0.735 l -2.303,-1.964 c 0.166,-0.158 0.307,-0.346 0.409,-0.567 L 12.796,7.127 13.274,8.4 c 0.02,0.113 0.058,0.224 0.138,0.317 0.072,0.086 0.164,0.143 0.262,0.183 0.01,0.005 0.022,0.006 0.034,0.009 0.062,0.022 0.125,0.043 0.19,0.046 0.077,0.007 0.155,-0.003 0.234,-0.025 0.002,-10e-4 0.003,-10e-4 0.003,-10e-4 0.021,-0.005 0.042,-10e-4 0.063,-0.01 0.111,-0.042 0.196,-0.113 0.269,-0.196 L 17.185,6.416 C 17.474,6.173 17.352,5.743 17.109,5.454 Z"
             style="fill:#030104"
             inkscape:connector-curvature="0" />
          <circle
             id="circle245"
             r="1.905"
             cy="1.905"
             cx="13.671"
             style="fill:#030104" />
        </g>
      </g>
      <g
         id="g251" />
      <g
         id="g253" />
      <g
         id="g255" />
      <g
         id="g257" />
      <g
         id="g259" />
      <g
         id="g261" />
      <g
         id="g263" />
      <g
         id="g265" />
      <g
         id="g267" />
      <g
         id="g269" />
      <g
         id="g271" />
      <g
         id="g273" />
      <g
         id="g275" />
      <g
         id="g277" />
      <g
         id="g279" />
    </g>
    <ellipse
       style="opacity:1;fill:#ffffff;stroke:#2b1620;stroke-width:2;stroke-miterlimit:4;stroke-dasharray:none;stroke-opacity:1;filter:url(#filter1836-7)"
       id="path1758-3"
       cx="38.496876"
       cy="104.11875"
       rx="25.796875"
       ry="21.166668"
       transform="matrix(2.7885691,0,0,2.3960128,106.0569,-157.48234)" />
    <g
       id="g3761"
       transform="matrix(0.00237444,0,0,-0.00206787,204.91953,140.34487)"
       style="fill:#000000;stroke:none">
      <path
         id="path3757"
         d="m 4084,12786 c -416,-68 -756,-378 -860,-785 -125,-485 105,-988 553,-1210 165,-82 277,-106 478,-105 139,1 173,4 257,27 363,97 649,374 752,728 75,260 51,520 -69,764 -139,281 -387,483 -690,561 -123,31 -301,40 -421,20 z"
         inkscape:connector-curvature="0" />
      <path
         id="path3759"
         d="m 3765,10455 c -149,-24 -309,-86 -443,-172 -74,-46 -2133,-1715 -2202,-1783 -60,-59 -99,-121 -124,-197 -22,-70 -474,-2108 -482,-2173 -8,-72 15,-180 56,-260 87,-172 293,-278 483,-249 91,14 195,68 266,140 91,91 122,163 177,409 55,250 351,1598 356,1623 2,13 738,620 745,614 1,-1 -254,-1134 -567,-2518 L 1462,3373 777,2223 C 400,1590 80,1046 67,1014 -24,796 -21,602 76,401 114,323 136,293 208,220 307,121 394,68 512,33 c 250,-72 497,-13 689,164 33,31 80,84 103,117 81,114 1517,2546 1576,2669 l 59,122 178,823 c 97,452 180,821 184,820 12,-6 1529,-1669 1529,-1677 0,-16 459,-2425 476,-2496 58,-253 250,-466 488,-541 330,-104 696,50 852,358 71,140 93,324 60,499 -8,41 -45,233 -81,425 -36,192 -115,608 -175,924 -60,316 -139,733 -175,925 -65,345 -95,462 -134,526 -11,18 -442,532 -958,1142 -516,609 -937,1114 -936,1120 8,44 475,2093 478,2096 2,2 96,-181 208,-406 158,-315 215,-420 251,-460 57,-63 1612,-1139 1711,-1184 189,-85 399,-46 539,100 173,182 179,463 13,647 -31,35 -269,204 -785,560 l -740,509 -145,290 c -643,1278 -931,1841 -966,1888 -257,349 -656,525 -1046,462 z"
         inkscape:connector-curvature="0" />
    </g>
    <text
       xml:space="preserve"
       style="font-style:normal;font-weight:normal;font-size:35.16361237px;line-height:1.25;font-family:sans-serif;letter-spacing:0px;word-spacing:0px;fill:#000000;fill-opacity:1;stroke:none;stroke-width:0.88001829;stroke-miterlimit:4;stroke-dasharray:none"
       x="200.72884"
       y="23.286432"
       id="text3690-1-6-5-92-3-9-2-5-7-3-5"
       inkscape:export-filename="/home/bdas/Work/Presentations/linuxcon2018/images/aero_diagram.png"
       inkscape:export-xdpi="96"
       inkscape:export-ydpi="96"
       transform="scale(0.80667877,1.2396508)"><tspan
         sodipodi:role="line"
         id="tspan3688-8-7-6-0-6-3-0-4-4-6-6"
         x="200.72884"
         y="23.286432"
         style="font-size:14.0654459px;stroke:#2b1620;stroke-width:0.88001829;stroke-miterlimit:4;stroke-dasharray:none;stroke-opacity:1">Not so tight loop</tspan></text>
    <text
       xml:space="preserve"
       style="font-style:normal;font-weight:normal;font-size:35.16361237px;line-height:1.25;font-family:sans-serif;letter-spacing:0px;word-spacing:0px;fill:#000000;fill-opacity:1;stroke:none;stroke-width:0.88001829;stroke-miterlimit:4;stroke-dasharray:none"
       x="17.207493"
       y="49.078407"
       id="text3690-1-6-5-92-3-9-2-5-7-3-5-3"
       inkscape:export-filename="/home/bdas/Work/Presentations/linuxcon2018/images/aero_diagram.png"
       inkscape:export-xdpi="96"
       inkscape:export-ydpi="96"
       transform="scale(0.80667878,1.2396508)"><tspan
         sodipodi:role="line"
         id="tspan3688-8-7-6-0-6-3-0-4-4-6-6-6"
         x="17.207493"
         y="49.078407"
         style="font-size:14.0654459px;stroke:#2b1620;stroke-width:0.88001829;stroke-miterlimit:4;stroke-dasharray:none;stroke-opacity:1">Tight loop</tspan></text>
  </g>
</svg>
